sv/clk_stepping/waveform.vcd
$version Generated by VerilatedVcd $end
$date Mon Mar 17 16:36:55 2025 $end
$timescale 1ps $end

 $scope module TOP $end
  $var wire  1 # clk_i $end
  $var wire  1 ( clk_o $end
  $var wire  1 ' cycle_start_i $end
  $var wire 32 & cycles_i [31:0] $end
  $var wire 32 * cycles_left_o [31:0] $end
  $var wire  1 % en_i $end
  $var wire  1 $ rst_ni $end
  $var wire  1 ) running_o $end
  $scope module clk_stepping $end
   $var wire  1 # clk_i $end
   $var wire  1 ( clk_o $end
   $var wire  2 , current_state [1:0] $end
   $var wire 32 + cycle_counter [31:0] $end
   $var wire  1 ' cycle_start_i $end
   $var wire 32 & cycles_i [31:0] $end
   $var wire 32 * cycles_left_o [31:0] $end
   $var wire  1 % en_i $end
   $var wire  2 - next_state [1:0] $end
   $var wire  1 $ rst_ni $end
   $var wire  1 ) running_o $end
  $upscope $end
 $upscope $end
$enddefinitions $end


#0
0#
0$
0%
b00000000000000000000000000000000 &
0'
0(
0)
b00000000000000000000000000000000 *
b00000000000000000000000000000000 +
b00 ,
b00 -
#1
1#
#2
0#
#3
1#
1$
#4
0#
#5
1#
1%
b00000000000000000000000000011001 &
1'
b01 -
#6
0#
#7
1#
1(
1)
b00000000000000000000000000011001 *
b00000000000000000000000000011001 +
b01 ,
#8
0#
0(
#9
1#
1(
b00000000000000000000000000011000 *
b00000000000000000000000000011000 +
#10
0#
0(
#11
1#
1(
b00000000000000000000000000010111 *
b00000000000000000000000000010111 +
#12
0#
0(
#13
1#
1(
b00000000000000000000000000010110 *
b00000000000000000000000000010110 +
#14
0#
0(
#15
1#
1(
b00000000000000000000000000010101 *
b00000000000000000000000000010101 +
#16
0#
0(
#17
1#
1(
b00000000000000000000000000010100 *
b00000000000000000000000000010100 +
#18
0#
0(
#19
1#
1(
b00000000000000000000000000010011 *
b00000000000000000000000000010011 +
#20
0#
0(
#21
1#
1(
b00000000000000000000000000010010 *
b00000000000000000000000000010010 +
#22
0#
0(
#23
1#
1(
b00000000000000000000000000010001 *
b00000000000000000000000000010001 +
#24
0#
0(
#25
1#
1(
b00000000000000000000000000010000 *
b00000000000000000000000000010000 +
#26
0#
0(
#27
1#
1(
b00000000000000000000000000001111 *
b00000000000000000000000000001111 +
#28
0#
0(
#29
1#
1(
b00000000000000000000000000001110 *
b00000000000000000000000000001110 +
#30
0#
0(
#31
1#
1(
b00000000000000000000000000001101 *
b00000000000000000000000000001101 +
#32
0#
0(
#33
1#
1(
b00000000000000000000000000001100 *
b00000000000000000000000000001100 +
#34
0#
0(
#35
1#
1(
b00000000000000000000000000001011 *
b00000000000000000000000000001011 +
#36
0#
0(
#37
1#
1(
b00000000000000000000000000001010 *
b00000000000000000000000000001010 +
#38
0#
0(
#39
1#
1(
b00000000000000000000000000001001 *
b00000000000000000000000000001001 +
#40
0#
0(
#41
1#
1(
b00000000000000000000000000001000 *
b00000000000000000000000000001000 +
#42
0#
0(
#43
1#
1(
b00000000000000000000000000000111 *
b00000000000000000000000000000111 +
#44
0#
0(
#45
1#
1(
b00000000000000000000000000000110 *
b00000000000000000000000000000110 +
#46
0#
0(
#47
1#
1(
b00000000000000000000000000000101 *
b00000000000000000000000000000101 +
#48
0#
0(
#49
1#
1(
b00000000000000000000000000000100 *
b00000000000000000000000000000100 +
#50
0#
0(
#51
1#
0%
1(
b00000000000000000000000000000011 *
b00000000000000000000000000000011 +
b00 -
#52
0#
0(
#53
1#
0)
b00000000000000000000000000000010 *
b00000000000000000000000000000010 +
b00 ,
