clk_stepping/waveform.vcd
$version Generated by VerilatedVcd $end
$date Mon Mar 17 10:32:20 2025 $end
$timescale 1ps $end

 $scope module TOP $end
  $var wire  1 # clk_i $end
  $var wire  1 ( clk_o $end
  $var wire  1 ' cycle_start_i $end
  $var wire 32 & cycles_i [31:0] $end
  $var wire 32 * cycles_left_o [31:0] $end
  $var wire  1 % en_i $end
  $var wire  1 $ rst_ni $end
  $var wire  1 ) running_o $end
  $scope module clk_stepping $end
   $var wire  1 # clk_i $end
   $var wire  1 ( clk_o $end
   $var wire  2 , current_state [1:0] $end
   $var wire 32 + cycle_counter [31:0] $end
   $var wire  1 ' cycle_start_i $end
   $var wire 32 & cycles_i [31:0] $end
   $var wire 32 * cycles_left_o [31:0] $end
   $var wire  1 % en_i $end
   $var wire  2 - next_state [1:0] $end
   $var wire  1 $ rst_ni $end
   $var wire  1 ) running_o $end
  $upscope $end
 $upscope $end
$enddefinitions $end


#0
1#
0$
0%
b00000000000000000000000000000000 &
0'
0(
0)
b00000000000000000000000000000000 *
b00000000000000000000000000000000 +
b00 ,
b00 -
#1
0#
#2
1#
#3
0#
#4
1#
#5
0#
#6
1#
#7
0#
#8
1#
#9
0#
#10
1#
#11
0#
1$
#12
1#
#13
0#
#14
1#
#15
0#
#16
1#
#17
0#
#18
1#
#19
0#
#20
1#
#21
0#
1%
b00000000000000000000000000011001 &
#22
1#
#23
0#
#24
1#
#25
0#
#26
1#
#27
0#
#28
1#
#29
0#
#30
1#
#31
0#
1'
b01 -
#32
1#
0'
1(
1)
b00000000000000000000000000011001 *
b00000000000000000000000000011001 +
b01 ,
#33
0#
0(
#34
1#
1(
b00000000000000000000000000011000 *
b00000000000000000000000000011000 +
#35
0#
0(
#36
1#
1(
b00000000000000000000000000010111 *
b00000000000000000000000000010111 +
#37
0#
0(
#38
1#
1(
b00000000000000000000000000010110 *
b00000000000000000000000000010110 +
#39
0#
0(
#40
1#
1(
b00000000000000000000000000010101 *
b00000000000000000000000000010101 +
#41
0#
0(
#42
1#
1(
b00000000000000000000000000010100 *
b00000000000000000000000000010100 +
#43
0#
0(
#44
1#
1(
b00000000000000000000000000010011 *
b00000000000000000000000000010011 +
#45
0#
0(
#46
1#
1(
b00000000000000000000000000010010 *
b00000000000000000000000000010010 +
#47
0#
0(
#48
1#
1(
b00000000000000000000000000010001 *
b00000000000000000000000000010001 +
#49
0#
0(
#50
1#
1(
b00000000000000000000000000010000 *
b00000000000000000000000000010000 +
#51
0#
0%
0(
b00 -
#52
1#
0)
b00000000000000000000000000001111 *
b00000000000000000000000000001111 +
b00 ,
