systemVerilog/tb_rca/sim/report-sim.log
Reading pref.tcl

# 2020.4

# vsim -c -sv_seed random -do "sim.do" -do "cov.do" "+n100" rca_tb 
# Start time: 22:18:09 on Jun 14,2023
# ** Note: (vsim-3812) Design is being optimized...
# //  Questa Sim-64
# //  Version 2020.4 linux_x86_64 Oct 13 2020
# //
# //  Copyright 1991-2020 Mentor Graphics Corporation
# //  All Rights Reserved.
# //
# //  QuestaSim and its associated documentation contain trade
# //  secrets and commercial or financial information that are the property of
# //  Mentor Graphics Corporation and are privileged, confidential,
# //  and exempt from disclosure under the Freedom of Information Act,
# //  5 U.S.C. Section 552. Furthermore, this information
# //  is prohibited from disclosure under the Trade Secrets Act,
# //  18 U.S.C. Section 1905.
# //
# Loading sv_std.std
# Loading work.rca_tb_sv_unit(fast)
# Loading work.rca_tb(fast)
# Loading work.rca_wrap(fast)
# Loading std.standard
# Loading std.textio(body)
# Loading ieee.std_logic_1164(body)
# Loading work.rca(behavioral)#1
# Loading work.rca_if(fast)
# Sv_Seed = 853833552
# do sim.do

########## SIMULATION STARTS ##########

# [CONFIG] Number of test cycles set to 100
# 
# TEST #1 - Launching RCA quiet test...
# TEST #1 - Test completed!
# TEST #1 - Functional coverage: 100.00%
# 
# TEST #2 - Launching RCA verbose test...
# [   1050] | a: 00011001 (  25) | b: 01011100 (  92) | res: 01110110 ( 118) | cin: 1 | cout: 0
# [   1060] | a: 00000011 (   3) | b: 10010000 (-112) | res: 10010100 (-108) | cin: 1 | cout: 0
# [   1070] | a: 11011101 ( -35) | b: 11111111 (  -1) | res: 11011101 ( -35) | cin: 1 | cout: 1
# [   1080] | a: 01011110 (  94) | b: 11111000 (  -8) | res: 01010110 (  86) | cin: 0 | cout: 1
# [   1090] | a: 10001111 (-113) | b: 10110101 ( -75) | res: 01000100 (  68) | cin: 0 | cout: 1
# [   1100] | a: 10011001 (-103) | b: 01011011 (  91) | res: 11110100 ( -12) | cin: 0 | cout: 0
# [   1110] | a: 01000100 (  68) | b: 10000111 (-121) | res: 11001011 ( -53) | cin: 0 | cout: 0
# [   1120] | a: 11101111 ( -17) | b: 01101011 ( 107) | res: 01011010 (  90) | cin: 0 | cout: 1
# [   1130] | a: 11111000 (  -8) | b: 10001001 (-119) | res: 10000001 (-127) | cin: 0 | cout: 1
# [   1140] | a: 00101110 (  46) | b: 01011011 (  91) | res: 10001010 (-118) | cin: 1 | cout: 0
# [   1150] | a: 00101111 (  47) | b: 10111100 ( -68) | res: 11101100 ( -20) | cin: 1 | cout: 0
# [   1160] | a: 00001011 (  11) | b: 00100010 (  34) | res: 00101101 (  45) | cin: 0 | cout: 0
# [   1170] | a: 00010101 (  21) | b: 11110011 ( -13) | res: 00001000 (   8) | cin: 0 | cout: 1
# [   1180] | a: 01001000 (  72) | b: 00110100 (  52) | res: 01111100 ( 124) | cin: 0 | cout: 0
# [   1190] | a: 00110100 (  52) | b: 00000000 (   0) | res: 00110100 (  52) | cin: 0 | cout: 0
# [   1200] | a: 11110011 ( -13) | b: 10011110 ( -98) | res: 10010001 (-111) | cin: 0 | cout: 1
# [   1210] | a: 01100111 ( 103) | b: 10011001 (-103) | res: 00000000 (   0) | cin: 0 | cout: 1
# [   1220] | a: 01100100 ( 100) | b: 10011010 (-102) | res: 11111111 (  -1) | cin: 1 | cout: 0
# [   1230] | a: 10010011 (-109) | b: 10011110 ( -98) | res: 00110010 (  50) | cin: 1 | cout: 1
# [   1240] | a: 00010100 (  20) | b: 01000111 (  71) | res: 01011011 (  91) | cin: 0 | cout: 0
# [   1250] | a: 01100111 ( 103) | b: 01100100 ( 100) | res: 11001011 ( -53) | cin: 0 | cout: 0
# [   1260] | a: 10001110 (-114) | b: 00000110 (   6) | res: 10010101 (-107) | cin: 1 | cout: 0
# [   1270] | a: 01111110 ( 126) | b: 01100010 (  98) | res: 11100000 ( -32) | cin: 0 | cout: 0
# [   1280] | a: 00000000 (   0) | b: 11011001 ( -39) | res: 11011010 ( -38) | cin: 1 | cout: 0
# [   1290] | a: 11101000 ( -24) | b: 11101100 ( -20) | res: 11010100 ( -44) | cin: 0 | cout: 1
# [   1300] | a: 11100001 ( -31) | b: 01100110 ( 102) | res: 01001000 (  72) | cin: 1 | cout: 1
# [   1310] | a: 10000110 (-122) | b: 00000000 (   0) | res: 10000111 (-121) | cin: 1 | cout: 0
# [   1320] | a: 11100101 ( -27) | b: 00000110 (   6) | res: 11101100 ( -20) | cin: 1 | cout: 0
# [   1330] | a: 10100001 ( -95) | b: 10010010 (-110) | res: 00110100 (  52) | cin: 1 | cout: 1
# [   1340] | a: 10000010 (-126) | b: 11010111 ( -41) | res: 01011010 (  90) | cin: 1 | cout: 1
# [   1350] | a: 11111111 (  -1) | b: 00010110 (  22) | res: 00010101 (  21) | cin: 0 | cout: 1
# [   1360] | a: 10001100 (-116) | b: 01100111 ( 103) | res: 11110011 ( -13) | cin: 0 | cout: 0
# [   1370] | a: 00000000 (   0) | b: 01000111 (  71) | res: 01000111 (  71) | cin: 0 | cout: 0
# [   1380] | a: 11011010 ( -38) | b: 11101001 ( -23) | res: 11000011 ( -61) | cin: 0 | cout: 1
# [   1390] | a: 01110001 ( 113) | b: 01000001 (  65) | res: 10110010 ( -78) | cin: 0 | cout: 0
# [   1400] | a: 11111001 (  -7) | b: 11111111 (  -1) | res: 11111001 (  -7) | cin: 1 | cout: 1
# [   1410] | a: 11000011 ( -61) | b: 00101110 (  46) | res: 11110001 ( -15) | cin: 0 | cout: 0
# [   1420] | a: 11000101 ( -59) | b: 00011001 (  25) | res: 11011111 ( -33) | cin: 1 | cout: 0
# [   1430] | a: 00000010 (   2) | b: 11101110 ( -18) | res: 11110000 ( -16) | cin: 0 | cout: 0
# [   1440] | a: 11010000 ( -48) | b: 00110000 (  48) | res: 00000000 (   0) | cin: 0 | cout: 1
# [   1450] | a: 00011001 (  25) | b: 11101010 ( -22) | res: 00000100 (   4) | cin: 1 | cout: 1
# [   1460] | a: 11000100 ( -60) | b: 10010011 (-109) | res: 01010111 (  87) | cin: 0 | cout: 1
# [   1470] | a: 01001001 (  73) | b: 11111101 (  -3) | res: 01000111 (  71) | cin: 1 | cout: 1
# [   1480] | a: 10101111 ( -81) | b: 00110001 (  49) | res: 11100001 ( -31) | cin: 1 | cout: 0
# [   1490] | a: 01010111 (  87) | b: 10011011 (-101) | res: 11110011 ( -13) | cin: 1 | cout: 0
# [   1500] | a: 00011000 (  24) | b: 00011100 (  28) | res: 00110101 (  53) | cin: 1 | cout: 0
# [   1510] | a: 10011000 (-104) | b: 11110101 ( -11) | res: 10001110 (-114) | cin: 1 | cout: 1
# [   1520] | a: 11110110 ( -10) | b: 11101110 ( -18) | res: 11100101 ( -27) | cin: 1 | cout: 1
# [   1530] | a: 01100001 (  97) | b: 00000000 (   0) | res: 01100001 (  97) | cin: 0 | cout: 0
# [   1540] | a: 00000000 (   0) | b: 00001101 (  13) | res: 00001101 (  13) | cin: 0 | cout: 0
# [   1550] | a: 00011010 (  26) | b: 10110100 ( -76) | res: 11001111 ( -49) | cin: 1 | cout: 0
# [   1560] | a: 11000100 ( -60) | b: 10101011 ( -85) | res: 01101111 ( 111) | cin: 0 | cout: 1
# [   1570] | a: 00110000 (  48) | b: 11111110 (  -2) | res: 00101110 (  46) | cin: 0 | cout: 1
# [   1580] | a: 10001001 (-119) | b: 01111011 ( 123) | res: 00000100 (   4) | cin: 0 | cout: 1
# [   1590] | a: 01111111 ( 127) | b: 10011110 ( -98) | res: 00011101 (  29) | cin: 0 | cout: 1
# [   1600] | a: 10011100 (-100) | b: 00000000 (   0) | res: 10011100 (-100) | cin: 0 | cout: 0
# [   1610] | a: 11110011 ( -13) | b: 00010101 (  21) | res: 00001001 (   9) | cin: 1 | cout: 1
# [   1620] | a: 00011010 (  26) | b: 01000110 (  70) | res: 01100000 (  96) | cin: 0 | cout: 0
# [   1630] | a: 01000111 (  71) | b: 01101101 ( 109) | res: 10110101 ( -75) | cin: 1 | cout: 0
# [   1640] | a: 11001111 ( -49) | b: 11100100 ( -28) | res: 10110100 ( -76) | cin: 1 | cout: 1
# [   1650] | a: 10100100 ( -92) | b: 00111100 (  60) | res: 11100001 ( -31) | cin: 1 | cout: 0
# [   1660] | a: 11011110 ( -34) | b: 01101111 ( 111) | res: 01001101 (  77) | cin: 0 | cout: 1
# [   1670] | a: 11101110 ( -18) | b: 11111011 (  -5) | res: 11101001 ( -23) | cin: 0 | cout: 1
# [   1680] | a: 01100000 (  96) | b: 00111001 (  57) | res: 10011010 (-102) | cin: 1 | cout: 0
# [   1690] | a: 10010011 (-109) | b: 01001010 (  74) | res: 11011101 ( -35) | cin: 0 | cout: 0
# [   1700] | a: 00101111 (  47) | b: 00011100 (  28) | res: 01001100 (  76) | cin: 1 | cout: 0
# [   1710] | a: 00100011 (  35) | b: 11100100 ( -28) | res: 00000111 (   7) | cin: 0 | cout: 1
# [   1720] | a: 11101111 ( -17) | b: 11110010 ( -14) | res: 11100001 ( -31) | cin: 0 | cout: 1
# [   1730] | a: 01011000 (  88) | b: 10011110 ( -98) | res: 11110110 ( -10) | cin: 0 | cout: 0
# [   1740] | a: 10001100 (-116) | b: 01001001 (  73) | res: 11010101 ( -43) | cin: 0 | cout: 0
# [   1750] | a: 11110101 ( -11) | b: 01100111 ( 103) | res: 01011100 (  92) | cin: 0 | cout: 1
# [   1760] | a: 10110100 ( -76) | b: 11111110 (  -2) | res: 10110010 ( -78) | cin: 0 | cout: 1
# [   1770] | a: 10110000 ( -80) | b: 01110101 ( 117) | res: 00100101 (  37) | cin: 0 | cout: 1
# [   1780] | a: 10011001 (-103) | b: 00111110 (  62) | res: 11011000 ( -40) | cin: 1 | cout: 0
# [   1790] | a: 11010101 ( -43) | b: 10111110 ( -66) | res: 10010100 (-108) | cin: 1 | cout: 1
# [   1800] | a: 11100001 ( -31) | b: 10111011 ( -69) | res: 10011101 ( -99) | cin: 1 | cout: 1
# [   1810] | a: 00011110 (  30) | b: 10110010 ( -78) | res: 11010000 ( -48) | cin: 0 | cout: 0
# [   1820] | a: 10000001 (-127) | b: 10110011 ( -77) | res: 00110100 (  52) | cin: 0 | cout: 1
# [   1830] | a: 11010000 ( -48) | b: 10101111 ( -81) | res: 01111111 ( 127) | cin: 0 | cout: 1
# [   1840] | a: 11001000 ( -56) | b: 10000010 (-126) | res: 01001011 (  75) | cin: 1 | cout: 1
# [   1850] | a: 11111111 (  -1) | b: 11110110 ( -10) | res: 11110110 ( -10) | cin: 1 | cout: 1
# [   1860] | a: 10111111 ( -65) | b: 11111101 (  -3) | res: 10111101 ( -67) | cin: 1 | cout: 1
# [   1870] | a: 01001101 (  77) | b: 01110010 ( 114) | res: 11000000 ( -64) | cin: 1 | cout: 0
# [   1880] | a: 00100100 (  36) | b: 01111111 ( 127) | res: 10100011 ( -93) | cin: 0 | cout: 0
# [   1890] | a: 10111110 ( -66) | b: 10110101 ( -75) | res: 01110100 ( 116) | cin: 1 | cout: 1
# [   1900] | a: 11010110 ( -42) | b: 10110101 ( -75) | res: 10001100 (-116) | cin: 1 | cout: 1
# [   1910] | a: 00111110 (  62) | b: 01011110 (  94) | res: 10011101 ( -99) | cin: 1 | cout: 0
# [   1920] | a: 01011111 (  95) | b: 00110110 (  54) | res: 10010101 (-107) | cin: 0 | cout: 0
# [   1930] | a: 11100001 ( -31) | b: 11001101 ( -51) | res: 10101111 ( -81) | cin: 1 | cout: 1
# [   1940] | a: 01100001 (  97) | b: 10100111 ( -89) | res: 00001001 (   9) | cin: 1 | cout: 1
# [   1950] | a: 00110111 (  55) | b: 11111001 (  -7) | res: 00110001 (  49) | cin: 1 | cout: 1
# [   1960] | a: 10000010 (-126) | b: 10010000 (-112) | res: 00010011 (  19) | cin: 1 | cout: 1
# [   1970] | a: 00101010 (  42) | b: 11000011 ( -61) | res: 11101110 ( -18) | cin: 1 | cout: 0
# [   1980] | a: 00110111 (  55) | b: 00110001 (  49) | res: 01101001 ( 105) | cin: 1 | cout: 0
# [   1990] | a: 11011011 ( -37) | b: 11111111 (  -1) | res: 11011011 ( -37) | cin: 1 | cout: 1
# [   2000] | a: 11100011 ( -29) | b: 11011010 ( -38) | res: 10111101 ( -67) | cin: 0 | cout: 1
# [   2010] | a: 00000000 (   0) | b: 11011110 ( -34) | res: 11011111 ( -33) | cin: 1 | cout: 0
# [   2020] | a: 10001011 (-117) | b: 00101011 (  43) | res: 10110111 ( -73) | cin: 1 | cout: 0
# [   2030] | a: 11011101 ( -35) | b: 01110000 ( 112) | res: 01001101 (  77) | cin: 0 | cout: 1
# [   2040] | a: 11011101 ( -35) | b: 01110000 ( 112) | res: 01001101 (  77) | cin: 0 | cout: 1
# TEST #2 - Test completed!
# TEST #2 - Functional coverage: 100.00%
# 
# TOTAL FUNCTIONAL COVERAGE: 100.00%
# 
### TEST PASSED!
# 
# ** Note: $stop    : ../tb/rca_tb.sv(101)
#    Time: 2040 ns  Iteration: 1  Instance: /rca_tb
# Break at ../tb/rca_tb.sv line 101
# Stopped at ../tb/rca_tb.sv line 101

##########  SIMULATION ENDS  ##########

# End time: 22:18:11 on Jun 14,2023, Elapsed time: 0:00:02
# Errors: 0, Warnings: 0
